Copyright 1986-2018 Xilinx, Inc. All Rights Reserved.
----------------------------------------------------------------------------------------------------------------------------------------------------------------------
| Tool Version     : Vivado v.2018.3 (win64) Build 2405991 Thu Dec  6 23:38:27 MST 2018
| Date             : Sun Dec 15 19:48:39 2019
| Host             : L3712-08 running 64-bit major release  (build 9200)
| Command          : report_power -file design_1_wrapper_power_routed.rpt -pb design_1_wrapper_power_summary_routed.pb -rpx design_1_wrapper_power_routed.rpx
| Design           : design_1_wrapper
| Device           : xc7z020clg484-1
| Design State     : routed
| Grade            : commercial
| Process          : typical
| Characterization : Production
----------------------------------------------------------------------------------------------------------------------------------------------------------------------

Power Report

Table of Contents
-----------------
1. Summary
1.1 On-Chip Components
1.2 Power Supply Summary
1.3 Confidence Level
2. Settings
2.1 Environment
2.2 Clock Constraints
3. Detailed Reports
3.1 By Hierarchy

1. Summary
----------

+--------------------------+--------------+
| Total On-Chip Power (W)  | 2.006        |
| Design Power Budget (W)  | Unspecified* |
| Power Budget Margin (W)  | NA           |
| Dynamic (W)              | 1.852        |
| Device Static (W)        | 0.153        |
| Effective TJA (C/W)      | 11.5         |
| Max Ambient (C)          | 61.9         |
| Junction Temperature (C) | 48.1         |
| Confidence Level         | Low          |
| Setting File             | ---          |
| Simulation Activity File | ---          |
| Design Nets Matched      | NA           |
+--------------------------+--------------+
* Specify Design Power Budget using, set_operating_conditions -design_power_budget <value in Watts>


1.1 On-Chip Components
----------------------

+--------------------------+-----------+----------+-----------+-----------------+
| On-Chip                  | Power (W) | Used     | Available | Utilization (%) |
+--------------------------+-----------+----------+-----------+-----------------+
| Clocks                   |     0.070 |        9 |       --- |             --- |
| Slice Logic              |     0.032 |    31394 |       --- |             --- |
|   LUT as Logic           |     0.026 |    10096 |     53200 |           18.98 |
|   Register               |     0.003 |    15630 |    106400 |           14.69 |
|   CARRY4                 |     0.002 |      649 |     13300 |            4.88 |
|   LUT as Distributed RAM |    <0.001 |      406 |     17400 |            2.33 |
|   LUT as Shift Register  |    <0.001 |      621 |     17400 |            3.57 |
|   F7/F8 Muxes            |    <0.001 |      147 |     53200 |            0.28 |
|   Others                 |     0.000 |     1081 |       --- |             --- |
| Signals                  |     0.047 |    23423 |       --- |             --- |
| Block RAM                |     0.008 |      8.5 |       140 |            6.07 |
| MMCM                     |     0.117 |        1 |         4 |           25.00 |
| DSPs                     |     0.011 |       19 |       220 |            8.64 |
| I/O                      |     0.024 |       23 |       200 |           11.50 |
| PS7                      |     1.543 |        1 |       --- |             --- |
| Static Power             |     0.153 |          |           |                 |
| Total                    |     2.006 |          |           |                 |
+--------------------------+-----------+----------+-----------+-----------------+


1.2 Power Supply Summary
------------------------

+-----------+-------------+-----------+-------------+------------+
| Source    | Voltage (V) | Total (A) | Dynamic (A) | Static (A) |
+-----------+-------------+-----------+-------------+------------+
| Vccint    |       1.000 |     0.188 |       0.171 |      0.018 |
| Vccaux    |       1.800 |     0.082 |       0.066 |      0.016 |
| Vcco33    |       3.300 |     0.000 |       0.000 |      0.000 |
| Vcco25    |       2.500 |     0.009 |       0.008 |      0.001 |
| Vcco18    |       1.800 |     0.000 |       0.000 |      0.000 |
| Vcco15    |       1.500 |     0.000 |       0.000 |      0.000 |
| Vcco135   |       1.350 |     0.000 |       0.000 |      0.000 |
| Vcco12    |       1.200 |     0.000 |       0.000 |      0.000 |
| Vccaux_io |       1.800 |     0.000 |       0.000 |      0.000 |
| Vccbram   |       1.000 |     0.002 |       0.000 |      0.002 |
| MGTAVcc   |       1.000 |     0.000 |       0.000 |      0.000 |
| MGTAVtt   |       1.200 |     0.000 |       0.000 |      0.000 |
| MGTVccaux |       1.800 |     0.000 |       0.000 |      0.000 |
| Vccpint   |       1.000 |     0.766 |       0.732 |      0.034 |
| Vccpaux   |       1.800 |     0.061 |       0.051 |      0.010 |
| Vccpll    |       1.800 |     0.017 |       0.014 |      0.003 |
| Vcco_ddr  |       1.500 |     0.459 |       0.457 |      0.002 |
| Vcco_mio0 |       3.300 |     0.003 |       0.002 |      0.001 |
| Vcco_mio1 |       1.800 |     0.003 |       0.002 |      0.001 |
| Vccadc    |       1.800 |     0.020 |       0.000 |      0.020 |
+-----------+-------------+-----------+-------------+------------+


1.3 Confidence Level
--------------------

+-----------------------------+------------+--------------------------------------------------------+------------------------------------------------------------------------------------------------------------+
| User Input Data             | Confidence | Details                                                | Action                                                                                                     |
+-----------------------------+------------+--------------------------------------------------------+------------------------------------------------------------------------------------------------------------+
| Design implementation state | High       | Design is routed                                       |                                                                                                            |
| Clock nodes activity        | High       | User specified more than 95% of clocks                 |                                                                                                            |
| I/O nodes activity          | Low        | More than 75% of inputs are missing user specification | Provide missing input activity with simulation results or by editing the "By Resource Type -> I/Os" view   |
| Internal nodes activity     | Medium     | User specified less than 25% of internal nodes         | Provide missing internal nodes activity with simulation results or by editing the "By Resource Type" views |
| Device models               | High       | Device models are Production                           |                                                                                                            |
|                             |            |                                                        |                                                                                                            |
| Overall confidence level    | Low        |                                                        |                                                                                                            |
+-----------------------------+------------+--------------------------------------------------------+------------------------------------------------------------------------------------------------------------+


2. Settings
-----------

2.1 Environment
---------------

+-----------------------+------------------------+
| Ambient Temp (C)      | 25.0                   |
| ThetaJA (C/W)         | 11.5                   |
| Airflow (LFM)         | 250                    |
| Heat Sink             | none                   |
| ThetaSA (C/W)         | 0.0                    |
| Board Selection       | medium (10"x10")       |
| # of Board Layers     | 8to11 (8 to 11 Layers) |
| Board Temperature (C) | 25.0                   |
+-----------------------+------------------------+


2.2 Clock Constraints
---------------------

+-------------------------------+-------------------------------------------------------------+-----------------+
| Clock                         | Domain                                                      | Constraint (ns) |
+-------------------------------+-------------------------------------------------------------+-----------------+
| clk_fpga_0                    | design_1_i/processing_system7_0/inst/FCLK_CLK_unbuffered[0] |            13.0 |
| clk_fpga_1                    | design_1_i/processing_system7_0/inst/FCLK_CLK_unbuffered[1] |             7.0 |
| clk_fpga_2                    | design_1_i/processing_system7_0/inst/FCLK_CLK2              |            20.0 |
| clk_fpga_2                    | design_1_i/processing_system7_0/inst/FCLK_CLK_unbuffered[2] |            20.0 |
| clk_fpga_3                    | design_1_i/processing_system7_0/inst/FCLK_CLK_unbuffered[3] |            10.0 |
| clkfbout_design_1_clk_wiz_0_0 | design_1_i/clk_wiz_0/inst/clkfbout_design_1_clk_wiz_0_0     |            40.0 |
| hdmio_clk                     | design_1_i/clk_wiz_0/inst/clk_out1_design_1_clk_wiz_0_0     |             6.7 |
+-------------------------------+-------------------------------------------------------------+-----------------+


3. Detailed Reports
-------------------

3.1 By Hierarchy
----------------

+--------------------------+-----------+
| Name                     | Power (W) |
+--------------------------+-----------+
| design_1_wrapper         |     1.852 |
|   design_1_i             |     1.852 |
|     axi_smc              |     0.013 |
|       inst               |     0.013 |
|     axi_smc_1            |     0.013 |
|       inst               |     0.013 |
|     clk_wiz_0            |     0.117 |
|       inst               |     0.117 |
|     filter_0             |     0.081 |
|       U0                 |     0.081 |
|     processing_system7_0 |     1.544 |
|       inst               |     1.544 |
|     ps7_0_axi_periph     |     0.005 |
|       s00_couplers       |     0.003 |
|     zed_hdmi_display     |     0.078 |
|       axi_vdma_0         |     0.013 |
|       v_axi4s_vid_out_0  |     0.009 |
|       v_cresample_0      |     0.003 |
|       v_rgb2ycrcb_0      |     0.008 |
|       v_tc_0             |     0.020 |
|       zed_hdmi_out_0     |     0.024 |
|     zed_hdmi_iic_0       |     0.002 |
|       U0                 |     0.002 |
+--------------------------+-----------+


